%YAML 1.1
%TAG !u! tag:unity3d.com,2011:
--- !u!1045 &1
EditorBuildSettings:
  m_ObjectHideFlags: 0
  serializedVersion: 2
  m_Scenes:
  - enabled: 1
    path: Assets/Scenes/Menu.unity
    guid: cc0243410b33f5746acb0f1b365924c2
  - enabled: 1
    path: Assets/Scenes/Game.unity
    guid: 5051cc1744f035d4999b965947bd303f
